[
  {
    "keyword": "Feature",
    "name": "Export Excel",
    "line": 1,
    "id": "export-excel",
    "tags": [],
    "uri": "excel-export-00018655-performance.feature",
    "elements": [
      {
        "id": "export-excel;excel-export-myfinance",
        "keyword": "Scenario",
        "line": 3,
        "name": "excel-export myFinance",
        "tags": [],
        "type": "scenario",
        "steps": [
          {
            "arguments": [
              {
                "rows": [
                  {
                    "cells": [
                      "name",
                      "vorname",
                      "vp nummer",
                      "rolle"
                    ]
                  },
                  {
                    "cells": [
                      "Testname",
                      "Testvorname",
                      "00018655",
                      "SUPERVISOR_INTERNAL"
                    ]
                  }
                ]
              }
            ],
            "keyword": "Given ",
            "line": 4,
            "name": "ich bin als folgender VP eingelogged",
            "result": {
              "status": "passed",
              "duration": 444000000
            }
          },
          {
            "arguments": [],
            "keyword": "Given ",
            "line": 7,
            "name": "ich bin auf der myFinance Startseite",
            "result": {
              "status": "passed",
              "duration": 4657000000
            }
          }
        ]
      }
    ]
  },
  {
    "keyword": "Feature",
    "name": "Export Excel",
    "line": 1,
    "id": "export-excel",
    "tags": [],
    "uri": "excel-export-00019145-content-test-en.feature",
    "elements": [
      {
        "id": "export-excel;excel-export-myfinance",
        "keyword": "Scenario",
        "line": 3,
        "name": "excel-export myFinance",
        "tags": [],
        "type": "scenario",
        "steps": [
          {
            "arguments": [],
            "keyword": "Given ",
            "line": 4,
            "name": "ich bin auf der myFinance Startseite",
            "result": {
              "status": "passed",
              "duration": 6292000000
            }
          },
          {
            "arguments": [],
            "keyword": "Given ",
            "line": 5,
            "name": "wechsle ich die Sprache auf \"EN\"",
            "result": {
              "status": "passed",
              "duration": 132000000
            }
          },
          {
            "arguments": [],
            "keyword": "Then ",
            "line": 6,
            "name": "clicke ich auf vertriebspartner \"00019145\"",
            "result": {
              "status": "passed",
              "duration": 3740000000
            }
          },
          {
            "arguments": [
              {
                "rows": [
                  {
                    "cells": [
                      "abrechnungsdatum",
                      "abrechnungsnummer",
                      "abrechnungsart",
                      "verguetungsart",
                      "abschlussproduzentName",
                      "abschlussproduzentVorName",
                      "abschlussproduzentFirmenname",
                      "abschlussproduzentVpNummer",
                      "abschlussproduzentRolle",
                      "abschlussproduzentNameStatus",
                      "geldempfaengerFirmenname",
                      "geldempfaengerName",
                      "geldempfaengerVorname",
                      "geldempfaengerVPNummer",
                      "geldempfaengerRolle",
                      "geldempfaengerStatus",
                      "gruppenkopfFirmenname",
                      "gruppenkopfName",
                      "gruppenkopfVorname",
                      "gruppenkopfVpNummer",
                      "gruppenkopfRolle",
                      "gruppenkopfStatus",
                      "versichertePersonName",
                      "versichertePersonVorname",
                      "versichertePersonPartnernummer",
                      "versichertePersonPLZ",
                      "versichertePersonOrt",
                      "versichertePersonProdukt",
                      "differenzprovision",
                      "entschaedigung",
                      "nettomonatspraemieVVG",
                      "maximaleEntschaedigungVVG",
                      "stornogrund",
                      "kommentar",
                      "antrageingangsdatum",
                      "laufzeitbeginn",
                      "laufzeitende",
                      "vertragsjahr",
                      "superprovisionJahresvolumen",
                      "superprovisionsatz",
                      "courtagensatz",
                      "courtageMonatspraemieVVG",
                      "Courtagenjahr"
                    ]
                  },
                  {
                    "cells": [
                      "1/6/2020",
                      "71104856_06012020",
                      "Commission Statement",
                      "Cancellation New business commission Product FICA",
                      "Staub",
                      "Rolf",
                      "1 zu 1 Versicherungstreuhand",
                      "00019145",
                      "Chief broker CB",
                      "Active",
                      "1 zu 1 Versicherungstreuhand",
                      "Staub",
                      "Rolf",
                      "00019145",
                      "Chief broker CB",
                      "Active",
                      "1 zu 1 Versicherungstreuhand",
                      "Staub",
                      "Rolf",
                      "00019145",
                      "Chief broker CB",
                      "Active",
                      "Jakaj",
                      "Julija",
                      "60485084",
                      "5607",
                      "Hägglingen",
                      "TOP",
                      "",
                      "-10",
                      "",
                      "no",
                      "",
                      "",
                      "",
                      "1/1/2018",
                      "12/31/2019",
                      "",
                      "",
                      "",
                      "",
                      "",
                      ""
                    ]
                  },
                  {
                    "cells": [
                      "1/6/2020",
                      "71104856_06012020",
                      "Commission Statement",
                      "Cancellation New business commission Product FICA",
                      "Staub",
                      "Rolf",
                      "1 zu 1 Versicherungstreuhand",
                      "00019145",
                      "Chief broker CB",
                      "Active",
                      "1 zu 1 Versicherungstreuhand",
                      "Staub",
                      "Rolf",
                      "00019145",
                      "Chief broker CB",
                      "Active",
                      "1 zu 1 Versicherungstreuhand",
                      "Staub",
                      "Rolf",
                      "00019145",
                      "Chief broker CB",
                      "Active",
                      "Jakaj",
                      "Marija",
                      "70850031",
                      "5607",
                      "Hägglingen",
                      "TOP",
                      "",
                      "-10",
                      "",
                      "no",
                      "",
                      "",
                      "",
                      "1/1/2018",
                      "12/31/2019",
                      "",
                      "",
                      "",
                      "",
                      "",
                      ""
                    ]
                  },
                  {
                    "cells": [
                      "1/6/2020",
                      "71104856_06012020",
                      "Commission Statement",
                      "Cancellation New business commission Product FICA",
                      "Staub",
                      "Rolf",
                      "1 zu 1 Versicherungstreuhand",
                      "00019145",
                      "Chief broker CB",
                      "Active",
                      "1 zu 1 Versicherungstreuhand",
                      "Staub",
                      "Rolf",
                      "00019145",
                      "Chief broker CB",
                      "Active",
                      "1 zu 1 Versicherungstreuhand",
                      "Staub",
                      "Rolf",
                      "00019145",
                      "Chief broker CB",
                      "Active",
                      "Jakaj",
                      "Bernard",
                      "70850032",
                      "5607",
                      "Hägglingen",
                      "TOP",
                      "",
                      "-10",
                      "",
                      "no",
                      "",
                      "",
                      "",
                      "1/1/2018",
                      "12/31/2019",
                      "",
                      "",
                      "",
                      "",
                      "",
                      ""
                    ]
                  }
                ]
              }
            ],
            "keyword": "Then ",
            "line": 7,
            "name": "clicke ich auf den Export button und validiere den download mit",
            "result": {
              "status": "passed",
              "duration": 1356000000
            }
          }
        ]
      }
    ]
  },
  {
    "keyword": "Feature",
    "name": "Export Excel",
    "line": 1,
    "id": "export-excel",
    "tags": [],
    "uri": "excel-export-00019145-content-test.feature",
    "elements": [
      {
        "id": "export-excel;excel-export-myfinance",
        "keyword": "Scenario",
        "line": 3,
        "name": "excel-export myFinance",
        "tags": [],
        "type": "scenario",
        "steps": [
          {
            "arguments": [],
            "keyword": "Given ",
            "line": 4,
            "name": "ich bin auf der myFinance Startseite",
            "result": {
              "status": "passed",
              "duration": 6285000000
            }
          },
          {
            "arguments": [],
            "keyword": "Given ",
            "line": 5,
            "name": "wechsle ich die Sprache auf \"DE\"",
            "result": {
              "status": "passed",
              "duration": 117000000
            }
          },
          {
            "arguments": [],
            "keyword": "Then ",
            "line": 6,
            "name": "clicke ich auf vertriebspartner \"00019145\"",
            "result": {
              "status": "passed",
              "duration": 3873000000
            }
          },
          {
            "arguments": [
              {
                "rows": [
                  {
                    "cells": [
                      "abrechnungsdatum",
                      "abrechnungsnummer",
                      "abrechnungsart",
                      "verguetungsart",
                      "abschlussproduzentName",
                      "abschlussproduzentVorName",
                      "abschlussproduzentFirmenname",
                      "abschlussproduzentVpNummer",
                      "abschlussproduzentRolle",
                      "abschlussproduzentNameStatus",
                      "geldempfaengerFirmenname",
                      "geldempfaengerName",
                      "geldempfaengerVorname",
                      "geldempfaengerVPNummer",
                      "geldempfaengerRolle",
                      "geldempfaengerStatus",
                      "gruppenkopfFirmenname",
                      "gruppenkopfName",
                      "gruppenkopfVorname",
                      "gruppenkopfVpNummer",
                      "gruppenkopfRolle",
                      "gruppenkopfStatus",
                      "versichertePersonName",
                      "versichertePersonVorname",
                      "versichertePersonPartnernummer",
                      "versichertePersonPLZ",
                      "versichertePersonOrt",
                      "versichertePersonProdukt",
                      "differenzprovision",
                      "entschaedigung",
                      "nettomonatspraemieVVG",
                      "maximaleEntschaedigungVVG",
                      "stornogrund",
                      "kommentar",
                      "antrageingangsdatum",
                      "laufzeitbeginn",
                      "laufzeitende",
                      "vertragsjahr",
                      "superprovisionJahresvolumen",
                      "superprovisionsatz",
                      "courtagensatz",
                      "courtageMonatspraemieVVG",
                      "Courtagenjahr"
                    ]
                  },
                  {
                    "cells": [
                      "1/6/2020",
                      "71104856_06012020",
                      "Provisionsabrechnung",
                      "Storno Abschlussprovision Produkt VVG",
                      "Staub",
                      "Rolf",
                      "1 zu 1 Versicherungstreuhand",
                      "00019145",
                      "Hauptvermittler HV",
                      "Aktiv",
                      "1 zu 1 Versicherungstreuhand",
                      "Staub",
                      "Rolf",
                      "00019145",
                      "Hauptvermittler HV",
                      "Aktiv",
                      "1 zu 1 Versicherungstreuhand",
                      "Staub",
                      "Rolf",
                      "00019145",
                      "Hauptvermittler HV",
                      "Aktiv",
                      "Jakaj",
                      "Julija",
                      "60485084",
                      "5607",
                      "Hägglingen",
                      "TOP",
                      "",
                      "-10",
                      "",
                      "nein",
                      "",
                      "",
                      "",
                      "1/1/2018",
                      "12/31/2019",
                      "",
                      "",
                      "",
                      "",
                      "",
                      ""
                    ]
                  },
                  {
                    "cells": [
                      "1/6/2020",
                      "71104856_06012020",
                      "Provisionsabrechnung",
                      "Storno Abschlussprovision Produkt VVG",
                      "Staub",
                      "Rolf",
                      "1 zu 1 Versicherungstreuhand",
                      "00019145",
                      "Hauptvermittler HV",
                      "Aktiv",
                      "1 zu 1 Versicherungstreuhand",
                      "Staub",
                      "Rolf",
                      "00019145",
                      "Hauptvermittler HV",
                      "Aktiv",
                      "1 zu 1 Versicherungstreuhand",
                      "Staub",
                      "Rolf",
                      "00019145",
                      "Hauptvermittler HV",
                      "Aktiv",
                      "Jakaj",
                      "Marija",
                      "70850031",
                      "5607",
                      "Hägglingen",
                      "TOP",
                      "",
                      "-10",
                      "",
                      "nein",
                      "",
                      "",
                      "",
                      "1/1/2018",
                      "12/31/2019",
                      "",
                      "",
                      "",
                      "",
                      "",
                      ""
                    ]
                  },
                  {
                    "cells": [
                      "1/6/2020",
                      "71104856_06012020",
                      "Provisionsabrechnung",
                      "Storno Abschlussprovision Produkt VVG",
                      "Staub",
                      "Rolf",
                      "1 zu 1 Versicherungstreuhand",
                      "00019145",
                      "Hauptvermittler HV",
                      "Aktiv",
                      "1 zu 1 Versicherungstreuhand",
                      "Staub",
                      "Rolf",
                      "00019145",
                      "Hauptvermittler HV",
                      "Aktiv",
                      "1 zu 1 Versicherungstreuhand",
                      "Staub",
                      "Rolf",
                      "00019145",
                      "Hauptvermittler HV",
                      "Aktiv",
                      "Jakaj",
                      "Bernard",
                      "70850032",
                      "5607",
                      "Hägglingen",
                      "TOP",
                      "",
                      "-10",
                      "",
                      "nein",
                      "",
                      "",
                      "",
                      "1/1/2018",
                      "12/31/2019",
                      "",
                      "",
                      "",
                      "",
                      "",
                      ""
                    ]
                  }
                ]
              }
            ],
            "keyword": "Then ",
            "line": 7,
            "name": "clicke ich auf den Export button und validiere den download mit",
            "result": {
              "status": "passed",
              "duration": 1298000000
            }
          }
        ]
      }
    ]
  },
  {
    "keyword": "Feature",
    "name": "Export Excel",
    "line": 1,
    "id": "export-excel",
    "tags": [],
    "uri": "excel-export-vp-00024092-CourtagenJahr.feature",
    "elements": [
      {
        "id": "export-excel;excel-export-myfinance",
        "keyword": "Scenario",
        "line": 3,
        "name": "excel-export myFinance",
        "tags": [],
        "type": "scenario",
        "steps": [
          {
            "arguments": [],
            "keyword": "Given ",
            "line": 4,
            "name": "ich bin auf der myFinance Provisions Suche",
            "result": {
              "status": "passed",
              "duration": 5846000000
            }
          },
          {
            "arguments": [],
            "keyword": "Given ",
            "line": 5,
            "name": "wechsle ich die Sprache auf \"DE\"",
            "result": {
              "status": "passed",
              "duration": 122000000
            }
          },
          {
            "arguments": [],
            "keyword": "Then ",
            "line": 6,
            "name": "selektiere ich geldempfaenger \"00024092\"",
            "result": {
              "status": "passed",
              "duration": 1180000000
            }
          },
          {
            "arguments": [],
            "keyword": "Then ",
            "line": 7,
            "name": "selektiere ich versicherungsnehmer \"100702816\"",
            "result": {
              "status": "passed",
              "duration": 1399000000
            }
          },
          {
            "arguments": [],
            "keyword": "Then ",
            "line": 8,
            "name": "selektiere ich von \"05.08.2020\"",
            "result": {
              "status": "passed",
              "duration": 606000000
            }
          },
          {
            "arguments": [],
            "keyword": "Then ",
            "line": 9,
            "name": "selektiere ich bis \"05.08.2020\"",
            "result": {
              "status": "passed",
              "duration": 598000000
            }
          },
          {
            "arguments": [],
            "keyword": "Then ",
            "line": 10,
            "name": "selektiere ich verguetungsarten \"VGA_Courtage_EV_extern_HEL, VGA_Courtage_EV_intern_HEL, VGA_Courtage_EV_manuell_HEL\"",
            "result": {
              "status": "passed",
              "duration": 728000000
            }
          },
          {
            "arguments": [],
            "keyword": "Then ",
            "line": 11,
            "name": "clicke ich den Suche Button",
            "result": {
              "status": "passed",
              "duration": 186000000
            }
          },
          {
            "arguments": [
              {
                "rows": [
                  {
                    "cells": [
                      "abrechnungsdatum",
                      "abrechnungsnummer",
                      "abrechnungsart",
                      "verguetungsart",
                      "abschlussproduzentName",
                      "abschlussproduzentVorName",
                      "abschlussproduzentFirmenname",
                      "abschlussproduzentVpNummer",
                      "abschlussproduzentRolle",
                      "abschlussproduzentNameStatus",
                      "geldempfaengerFirmenname",
                      "geldempfaengerName",
                      "geldempfaengerVorname",
                      "geldempfaengerVPNummer",
                      "geldempfaengerRolle",
                      "geldempfaengerStatus",
                      "gruppenkopfFirmenname",
                      "gruppenkopfName",
                      "gruppenkopfVorname",
                      "gruppenkopfVpNummer",
                      "gruppenkopfRolle",
                      "gruppenkopfStatus",
                      "versichertePersonName",
                      "versichertePersonVorname",
                      "versichertePersonPartnernummer",
                      "versichertePersonPLZ",
                      "versichertePersonOrt",
                      "versichertePersonProdukt",
                      "differenzprovision",
                      "entschaedigung",
                      "nettomonatspraemieVVG",
                      "maximaleEntschaedigungVVG",
                      "stornogrund",
                      "kommentar",
                      "antrageingangsdatum",
                      "laufzeitbeginn",
                      "laufzeitende",
                      "vertragsjahr",
                      "superprovisionJahresvolumen",
                      "superprovisionsatz",
                      "courtagensatz",
                      "courtageMonatspraemieVVG",
                      "Courtagenjahr"
                    ]
                  },
                  {
                    "cells": [
                      "ignore",
                      "ignore",
                      "ignore",
                      "ignore",
                      "ignore",
                      "ignore",
                      "ignore",
                      "ignore",
                      "ignore",
                      "ignore",
                      "ignore",
                      "ignore",
                      "ignore",
                      "ignore",
                      "ignore",
                      "ignore",
                      "ignore",
                      "ignore",
                      "ignore",
                      "ignore",
                      "ignore",
                      "ignore",
                      "ignore",
                      "ignore",
                      "ignore",
                      "ignore",
                      "ignore",
                      "ignore",
                      "ignore",
                      "ignore",
                      "ignore",
                      "ignore",
                      "ignore",
                      "ignore",
                      "ignore",
                      "ignore",
                      "ignore",
                      "ignore",
                      "ignore",
                      "ignore",
                      "ignore",
                      "ignore",
                      "1"
                    ]
                  },
                  {
                    "cells": [
                      "ignore",
                      "ignore",
                      "ignore",
                      "ignore",
                      "ignore",
                      "ignore",
                      "ignore",
                      "ignore",
                      "ignore",
                      "ignore",
                      "ignore",
                      "ignore",
                      "ignore",
                      "ignore",
                      "ignore",
                      "ignore",
                      "ignore",
                      "ignore",
                      "ignore",
                      "ignore",
                      "ignore",
                      "ignore",
                      "ignore",
                      "ignore",
                      "ignore",
                      "ignore",
                      "ignore",
                      "ignore",
                      "ignore",
                      "ignore",
                      "ignore",
                      "ignore",
                      "ignore",
                      "ignore",
                      "ignore",
                      "ignore",
                      "ignore",
                      "ignore",
                      "ignore",
                      "ignore",
                      "ignore",
                      "ignore",
                      "1"
                    ]
                  }
                ]
              }
            ],
            "keyword": "Then ",
            "line": 12,
            "name": "clicke ich auf den Export button und validiere den download mit",
            "result": {
              "status": "passed",
              "duration": 877000000
            }
          }
        ]
      }
    ]
  },
  {
    "keyword": "Feature",
    "name": "Export Excel",
    "line": 1,
    "id": "export-excel",
    "tags": [],
    "uri": "goto-example-provision-suche.feature",
    "elements": [
      {
        "id": "export-excel;excel-export-myfinance",
        "keyword": "Scenario",
        "line": 3,
        "name": "excel-export myFinance",
        "tags": [],
        "type": "scenario",
        "steps": [
          {
            "arguments": [],
            "keyword": "Given ",
            "line": 4,
            "name": "ich bin auf der myFinance Provisions Suche",
            "result": {
              "status": "passed",
              "duration": 5702000000
            }
          },
          {
            "arguments": [],
            "keyword": "Given ",
            "line": 5,
            "name": "wechsle ich die Sprache auf \"DE\"",
            "result": {
              "status": "passed",
              "duration": 118000000
            }
          },
          {
            "arguments": [],
            "keyword": "Then ",
            "line": 6,
            "name": "selektiere ich geldempfaenger \"00019198\"",
            "result": {
              "status": "passed",
              "duration": 1149000000
            }
          },
          {
            "arguments": [],
            "keyword": "Then ",
            "line": 7,
            "name": "selektiere ich abschlussproduzent \"00019198\"",
            "result": {
              "status": "passed",
              "duration": 1256000000
            }
          },
          {
            "arguments": [],
            "keyword": "Then ",
            "line": 8,
            "name": "selektiere ich versicherungsnehmer \"100020559\"",
            "result": {
              "status": "passed",
              "duration": 1427000000
            }
          },
          {
            "arguments": [],
            "keyword": "Then ",
            "line": 9,
            "name": "selektiere ich von \"01.03.2020\"",
            "result": {
              "status": "passed",
              "duration": 603000000
            }
          },
          {
            "arguments": [],
            "keyword": "Then ",
            "line": 10,
            "name": "selektiere ich bis \"02.08.2020\"",
            "result": {
              "status": "passed",
              "duration": 618000000
            }
          },
          {
            "arguments": [],
            "keyword": "Then ",
            "line": 11,
            "name": "selektiere ich produkt \"HOSPITAL FLEX\"",
            "result": {
              "status": "passed",
              "duration": 703000000
            }
          },
          {
            "arguments": [],
            "keyword": "Then ",
            "line": 12,
            "name": "selektiere ich verguetungsarten \"VGA_Beratung_Serviceleistungen_my_Helsana_HEL,VGA_Beratung_Serviceleistungen_Helsana_Plus_HEL,VGA_Beratung_Serviceleistungen_Helsana_Coach_HEL,VGA_Beratung_Serviceleistungen_Helsana_Trails_HEL\"",
            "result": {
              "status": "passed",
              "duration": 906000000
            }
          },
          {
            "arguments": [],
            "keyword": "Then ",
            "line": 13,
            "name": "selektiere ich provisionstatus \"Differenzprovision\"",
            "result": {
              "status": "passed",
              "duration": 794000000
            }
          },
          {
            "arguments": [],
            "keyword": "Then ",
            "line": 14,
            "name": "werden keine Provisionen gefunden",
            "result": {
              "status": "passed",
              "duration": 187000000
            }
          }
        ]
      }
    ]
  },
  {
    "keyword": "Feature",
    "name": "Export Excel",
    "line": 1,
    "id": "export-excel",
    "tags": [],
    "uri": "goto-example-set-column-filters.feature",
    "elements": [
      {
        "id": "export-excel;excel-export-myfinance",
        "keyword": "Scenario",
        "line": 3,
        "name": "excel-export myFinance",
        "tags": [],
        "type": "scenario",
        "steps": [
          {
            "arguments": [
              {
                "rows": [
                  {
                    "cells": [
                      "name",
                      "vorname",
                      "vp nummer",
                      "rolle"
                    ]
                  },
                  {
                    "cells": [
                      "Testname",
                      "Testvorname",
                      "00018655",
                      "SUPERVISOR_INTERNAL"
                    ]
                  }
                ]
              }
            ],
            "keyword": "Given ",
            "line": 4,
            "name": "ich bin als folgender VP eingelogged",
            "result": {
              "status": "passed",
              "duration": 302000000
            }
          },
          {
            "arguments": [],
            "keyword": "Given ",
            "line": 7,
            "name": "ich bin auf der myFinance Startseite",
            "result": {
              "status": "passed",
              "duration": 4484000000
            }
          },
          {
            "arguments": [],
            "keyword": "Then ",
            "line": 8,
            "name": "clicke ich auf op \"20380542821\"",
            "result": {
              "status": "passed",
              "duration": 3797000000
            }
          },
          {
            "arguments": [],
            "keyword": "Then ",
            "line": 9,
            "name": "setzte ich abrechnungsdatum Filter auf \"28.10.2020\"",
            "result": {
              "status": "passed",
              "duration": 1006000000
            }
          },
          {
            "arguments": [],
            "keyword": "Then ",
            "line": 10,
            "name": "setzte ich filter text \"Ibra\" in column \"13\"",
            "result": {
              "status": "passed",
              "duration": 407000000
            }
          }
        ]
      }
    ]
  },
  {
    "keyword": "Feature",
    "name": "Export Excel",
    "line": 1,
    "id": "export-excel",
    "tags": [],
    "uri": "provision-suche-page-translation-check.feature",
    "elements": [
      {
        "id": "export-excel;excel-export-myfinance",
        "keyword": "Scenario",
        "line": 11,
        "name": "excel-export myFinance",
        "tags": [],
        "type": "scenario",
        "steps": [
          {
            "arguments": [],
            "keyword": "Given ",
            "line": 4,
            "name": "ich bin auf der myFinance Provisions Suche",
            "result": {
              "status": "passed",
              "duration": 5573000000
            }
          },
          {
            "arguments": [],
            "keyword": "Given ",
            "line": 5,
            "name": "wechsle ich die Sprache auf \"EN\"",
            "result": {
              "status": "passed",
              "duration": 145000000
            }
          },
          {
            "arguments": [],
            "keyword": "Then ",
            "line": 6,
            "name": "keine übersetzungen mehr falsch",
            "result": {
              "status": "passed",
              "duration": 35000000
            }
          },
          {
            "arguments": [],
            "keyword": "Then ",
            "line": 7,
            "name": "clicke ich den Suche Button",
            "result": {
              "status": "passed",
              "duration": 177000000
            }
          },
          {
            "arguments": [],
            "keyword": "Then ",
            "line": 8,
            "name": "keine übersetzungen mehr falsch",
            "result": {
              "status": "passed",
              "duration": 32000000
            }
          }
        ]
      },
      {
        "id": "export-excel;excel-export-myfinance",
        "keyword": "Scenario",
        "line": 12,
        "name": "excel-export myFinance",
        "tags": [],
        "type": "scenario",
        "steps": [
          {
            "arguments": [],
            "keyword": "Given ",
            "line": 4,
            "name": "ich bin auf der myFinance Provisions Suche",
            "result": {
              "status": "passed",
              "duration": 5108000000
            }
          },
          {
            "arguments": [],
            "keyword": "Given ",
            "line": 5,
            "name": "wechsle ich die Sprache auf \"DE\"",
            "result": {
              "status": "passed",
              "duration": 131000000
            }
          },
          {
            "arguments": [],
            "keyword": "Then ",
            "line": 6,
            "name": "keine übersetzungen mehr falsch",
            "result": {
              "status": "passed",
              "duration": 34000000
            }
          },
          {
            "arguments": [],
            "keyword": "Then ",
            "line": 7,
            "name": "clicke ich den Suche Button",
            "result": {
              "status": "passed",
              "duration": 148000000
            }
          },
          {
            "arguments": [],
            "keyword": "Then ",
            "line": 8,
            "name": "keine übersetzungen mehr falsch",
            "result": {
              "status": "passed",
              "duration": 39000000
            }
          }
        ]
      },
      {
        "id": "export-excel;excel-export-myfinance",
        "keyword": "Scenario",
        "line": 13,
        "name": "excel-export myFinance",
        "tags": [],
        "type": "scenario",
        "steps": [
          {
            "arguments": [],
            "keyword": "Given ",
            "line": 4,
            "name": "ich bin auf der myFinance Provisions Suche",
            "result": {
              "status": "passed",
              "duration": 5123000000
            }
          },
          {
            "arguments": [],
            "keyword": "Given ",
            "line": 5,
            "name": "wechsle ich die Sprache auf \"FR\"",
            "result": {
              "status": "passed",
              "duration": 153000000
            }
          },
          {
            "arguments": [],
            "keyword": "Then ",
            "line": 6,
            "name": "keine übersetzungen mehr falsch",
            "result": {
              "status": "passed",
              "duration": 26000000
            }
          },
          {
            "arguments": [],
            "keyword": "Then ",
            "line": 7,
            "name": "clicke ich den Suche Button",
            "result": {
              "status": "passed",
              "duration": 141000000
            }
          },
          {
            "arguments": [],
            "keyword": "Then ",
            "line": 8,
            "name": "keine übersetzungen mehr falsch",
            "result": {
              "status": "passed",
              "duration": 28000000
            }
          }
        ]
      },
      {
        "id": "export-excel;excel-export-myfinance",
        "keyword": "Scenario",
        "line": 14,
        "name": "excel-export myFinance",
        "tags": [],
        "type": "scenario",
        "steps": [
          {
            "arguments": [],
            "keyword": "Given ",
            "line": 4,
            "name": "ich bin auf der myFinance Provisions Suche",
            "result": {
              "status": "passed",
              "duration": 5219000000
            }
          },
          {
            "arguments": [],
            "keyword": "Given ",
            "line": 5,
            "name": "wechsle ich die Sprache auf \"IT\"",
            "result": {
              "status": "passed",
              "duration": 141000000
            }
          },
          {
            "arguments": [],
            "keyword": "Then ",
            "line": 6,
            "name": "keine übersetzungen mehr falsch",
            "result": {
              "status": "passed",
              "duration": 26000000
            }
          },
          {
            "arguments": [],
            "keyword": "Then ",
            "line": 7,
            "name": "clicke ich den Suche Button",
            "result": {
              "status": "passed",
              "duration": 144000000
            }
          },
          {
            "arguments": [],
            "keyword": "Then ",
            "line": 8,
            "name": "keine übersetzungen mehr falsch",
            "result": {
              "status": "passed",
              "duration": 31000000
            }
          }
        ]
      }
    ]
  },
  {
    "keyword": "Feature",
    "name": "Export Excel",
    "line": 1,
    "id": "export-excel",
    "tags": [],
    "uri": "startseite-translation-check.feature",
    "elements": [
      {
        "id": "export-excel;excel-export-myfinance",
        "keyword": "Scenario",
        "line": 13,
        "name": "excel-export myFinance",
        "tags": [],
        "type": "scenario",
        "steps": [
          {
            "arguments": [],
            "keyword": "Given ",
            "line": 4,
            "name": "ich bin auf der myFinance Startseite",
            "result": {
              "status": "passed",
              "duration": 6313000000
            }
          },
          {
            "arguments": [],
            "keyword": "Given ",
            "line": 5,
            "name": "wechsle ich die Sprache auf \"EN\"",
            "result": {
              "status": "passed",
              "duration": 155000000
            }
          },
          {
            "arguments": [],
            "keyword": "Then ",
            "line": 6,
            "name": "keine übersetzungen mehr falsch",
            "result": {
              "status": "passed",
              "duration": 40000000
            }
          },
          {
            "arguments": [],
            "keyword": "Then ",
            "line": 7,
            "name": "öffne ich das myFinance Menu",
            "result": {
              "status": "passed",
              "duration": 144000000
            }
          },
          {
            "arguments": [],
            "keyword": "Then ",
            "line": 8,
            "name": "keine übersetzungen mehr falsch",
            "result": {
              "status": "passed",
              "duration": 44000000
            }
          },
          {
            "arguments": [],
            "keyword": "Then ",
            "line": 9,
            "name": "öffne ich den daten load Tooltip",
            "result": {
              "status": "passed",
              "duration": 92000000
            }
          },
          {
            "arguments": [],
            "keyword": "Then ",
            "line": 10,
            "name": "keine übersetzungen mehr falsch",
            "result": {
              "status": "passed",
              "duration": 41000000
            }
          }
        ]
      },
      {
        "id": "export-excel;excel-export-myfinance",
        "keyword": "Scenario",
        "line": 14,
        "name": "excel-export myFinance",
        "tags": [],
        "type": "scenario",
        "steps": [
          {
            "arguments": [],
            "keyword": "Given ",
            "line": 4,
            "name": "ich bin auf der myFinance Startseite",
            "result": {
              "status": "passed",
              "duration": 5784000000
            }
          },
          {
            "arguments": [],
            "keyword": "Given ",
            "line": 5,
            "name": "wechsle ich die Sprache auf \"DE\"",
            "result": {
              "status": "passed",
              "duration": 119000000
            }
          },
          {
            "arguments": [],
            "keyword": "Then ",
            "line": 6,
            "name": "keine übersetzungen mehr falsch",
            "result": {
              "status": "passed",
              "duration": 34000000
            }
          },
          {
            "arguments": [],
            "keyword": "Then ",
            "line": 7,
            "name": "öffne ich das myFinance Menu",
            "result": {
              "status": "passed",
              "duration": 126000000
            }
          },
          {
            "arguments": [],
            "keyword": "Then ",
            "line": 8,
            "name": "keine übersetzungen mehr falsch",
            "result": {
              "status": "passed",
              "duration": 39000000
            }
          },
          {
            "arguments": [],
            "keyword": "Then ",
            "line": 9,
            "name": "öffne ich den daten load Tooltip",
            "result": {
              "status": "passed",
              "duration": 94000000
            }
          },
          {
            "arguments": [],
            "keyword": "Then ",
            "line": 10,
            "name": "keine übersetzungen mehr falsch",
            "result": {
              "status": "passed",
              "duration": 40000000
            }
          }
        ]
      },
      {
        "id": "export-excel;excel-export-myfinance",
        "keyword": "Scenario",
        "line": 15,
        "name": "excel-export myFinance",
        "tags": [],
        "type": "scenario",
        "steps": [
          {
            "arguments": [],
            "keyword": "Given ",
            "line": 4,
            "name": "ich bin auf der myFinance Startseite",
            "result": {
              "status": "passed",
              "duration": 6005000000
            }
          },
          {
            "arguments": [],
            "keyword": "Given ",
            "line": 5,
            "name": "wechsle ich die Sprache auf \"FR\"",
            "result": {
              "status": "passed",
              "duration": 131000000
            }
          },
          {
            "arguments": [],
            "keyword": "Then ",
            "line": 6,
            "name": "keine übersetzungen mehr falsch",
            "result": {
              "status": "passed",
              "duration": 28000000
            }
          },
          {
            "arguments": [],
            "keyword": "Then ",
            "line": 7,
            "name": "öffne ich das myFinance Menu",
            "result": {
              "status": "passed",
              "duration": 121000000
            }
          },
          {
            "arguments": [],
            "keyword": "Then ",
            "line": 8,
            "name": "keine übersetzungen mehr falsch",
            "result": {
              "status": "passed",
              "duration": 39000000
            }
          },
          {
            "arguments": [],
            "keyword": "Then ",
            "line": 9,
            "name": "öffne ich den daten load Tooltip",
            "result": {
              "status": "passed",
              "duration": 88000000
            }
          },
          {
            "arguments": [],
            "keyword": "Then ",
            "line": 10,
            "name": "keine übersetzungen mehr falsch",
            "result": {
              "status": "passed",
              "duration": 33000000
            }
          }
        ]
      },
      {
        "id": "export-excel;excel-export-myfinance",
        "keyword": "Scenario",
        "line": 16,
        "name": "excel-export myFinance",
        "tags": [],
        "type": "scenario",
        "steps": [
          {
            "arguments": [],
            "keyword": "Given ",
            "line": 4,
            "name": "ich bin auf der myFinance Startseite",
            "result": {
              "status": "passed",
              "duration": 6078000000
            }
          },
          {
            "arguments": [],
            "keyword": "Given ",
            "line": 5,
            "name": "wechsle ich die Sprache auf \"IT\"",
            "result": {
              "status": "passed",
              "duration": 130000000
            }
          },
          {
            "arguments": [],
            "keyword": "Then ",
            "line": 6,
            "name": "keine übersetzungen mehr falsch",
            "result": {
              "status": "passed",
              "duration": 27000000
            }
          },
          {
            "arguments": [],
            "keyword": "Then ",
            "line": 7,
            "name": "öffne ich das myFinance Menu",
            "result": {
              "status": "passed",
              "duration": 115000000
            }
          },
          {
            "arguments": [],
            "keyword": "Then ",
            "line": 8,
            "name": "keine übersetzungen mehr falsch",
            "result": {
              "status": "passed",
              "duration": 45000000
            }
          },
          {
            "arguments": [],
            "keyword": "Then ",
            "line": 9,
            "name": "öffne ich den daten load Tooltip",
            "result": {
              "status": "passed",
              "duration": 99000000
            }
          },
          {
            "arguments": [],
            "keyword": "Then ",
            "line": 10,
            "name": "keine übersetzungen mehr falsch",
            "result": {
              "status": "passed",
              "duration": 30000000
            }
          }
        ]
      }
    ]
  },
  {
    "keyword": "Feature",
    "name": "Export Excel",
    "line": 1,
    "id": "export-excel",
    "tags": [],
    "uri": "unauthorized-page-translation-check.feature",
    "elements": [
      {
        "id": "export-excel;excel-export-myfinance",
        "keyword": "Scenario",
        "line": 9,
        "name": "excel-export myFinance",
        "tags": [],
        "type": "scenario",
        "steps": [
          {
            "arguments": [],
            "keyword": "Given ",
            "line": 4,
            "name": "ich bin auf der myFinance nicht angemeldet Seite",
            "result": {
              "status": "passed",
              "duration": 4327000000
            }
          },
          {
            "arguments": [],
            "keyword": "Given ",
            "line": 5,
            "name": "wechsle ich die Sprache auf \"EN\"",
            "result": {
              "status": "passed",
              "duration": 119000000
            }
          },
          {
            "arguments": [],
            "keyword": "Then ",
            "line": 6,
            "name": "keine übersetzungen mehr falsch",
            "result": {
              "status": "passed",
              "duration": 31000000
            }
          }
        ]
      },
      {
        "id": "export-excel;excel-export-myfinance",
        "keyword": "Scenario",
        "line": 10,
        "name": "excel-export myFinance",
        "tags": [],
        "type": "scenario",
        "steps": [
          {
            "arguments": [],
            "keyword": "Given ",
            "line": 4,
            "name": "ich bin auf der myFinance nicht angemeldet Seite",
            "result": {
              "status": "passed",
              "duration": 3957000000
            }
          },
          {
            "arguments": [],
            "keyword": "Given ",
            "line": 5,
            "name": "wechsle ich die Sprache auf \"DE\"",
            "result": {
              "status": "passed",
              "duration": 133000000
            }
          },
          {
            "arguments": [],
            "keyword": "Then ",
            "line": 6,
            "name": "keine übersetzungen mehr falsch",
            "result": {
              "status": "passed",
              "duration": 25000000
            }
          }
        ]
      },
      {
        "id": "export-excel;excel-export-myfinance",
        "keyword": "Scenario",
        "line": 11,
        "name": "excel-export myFinance",
        "tags": [],
        "type": "scenario",
        "steps": [
          {
            "arguments": [],
            "keyword": "Given ",
            "line": 4,
            "name": "ich bin auf der myFinance nicht angemeldet Seite",
            "result": {
              "status": "passed",
              "duration": 3759000000
            }
          },
          {
            "arguments": [],
            "keyword": "Given ",
            "line": 5,
            "name": "wechsle ich die Sprache auf \"FR\"",
            "result": {
              "status": "passed",
              "duration": 125000000
            }
          },
          {
            "arguments": [],
            "keyword": "Then ",
            "line": 6,
            "name": "keine übersetzungen mehr falsch",
            "result": {
              "status": "passed",
              "duration": 24000000
            }
          }
        ]
      },
      {
        "id": "export-excel;excel-export-myfinance",
        "keyword": "Scenario",
        "line": 12,
        "name": "excel-export myFinance",
        "tags": [],
        "type": "scenario",
        "steps": [
          {
            "arguments": [],
            "keyword": "Given ",
            "line": 4,
            "name": "ich bin auf der myFinance nicht angemeldet Seite",
            "result": {
              "status": "passed",
              "duration": 3820000000
            }
          },
          {
            "arguments": [],
            "keyword": "Given ",
            "line": 5,
            "name": "wechsle ich die Sprache auf \"IT\"",
            "result": {
              "status": "passed",
              "duration": 120000000
            }
          },
          {
            "arguments": [],
            "keyword": "Then ",
            "line": 6,
            "name": "keine übersetzungen mehr falsch",
            "result": {
              "status": "passed",
              "duration": 28000000
            }
          }
        ]
      }
    ]
  }
]
